ssp: sspf @ 16:03:57.858 => 46c2-c993-8ccb-7a87-7235 @ 970x90 @ 3.87 @ top
ssp: sspc @ 16:03:59.52 => cb11-e648-3771-bb41-ad44 @ 300x250 @ 3.79 @ left-bottom
ssp: sspf @ 16:03:59.55 => 3230-109e-06f9-eff4-4554 @ 300x250 @ 1.46 @ left-top
ssp: sspf @ 16:04:09.566 => d3e1-8af6-d466-8417-24a9 @ 970x90 @ 2.87 @ top
ssp: sspd @ 16:04:11.368 => e418-9e6b-c362-6e34-c498 @ 300x250 @ 3.36 @ left-top
