ssp: sspd @ 14:49:03.695 => 5470-a63b-d495-77de-c912 @ 300x250 @ 0.25 @ left-top
ssp: sspf @ 14:49:04.263 => e9f8-8705-2df5-a9ce-e71e @ 970x250 @ 1.85 @ top
ssp: sspe @ 14:49:05.407 => 76da-ef4a-182b-a4b9-8a17 @ 300x250 @ 3.97 @ left-bottom
ssp: sspa @ 14:49:00.499 => 5c2a-1c27-8c0a-cafb-1329 @ 300x250 @ 2.60 @ left-top
