ssp: sspd @ 14:49:03.695 => 5470-a63b-d495-77de-c912 @ 300x250 @ 0.25 @ left-top
ssp: sspf @ 14:49:04.263 => e9f8-8705-2df5-a9ce-e71e @ 970x250 @ 1.85 @ top
ssp: sspe @ 14:49:05.407 => 76da-ef4a-182b-a4b9-8a17 @ 300x250 @ 3.97 @ left-bottom
ssp: sspa @ 14:49:00.499 => 5c2a-1c27-8c0a-cafb-1329 @ 300x250 @ 2.60 @ left-top
ssp: sspf @ 14:48:58.702 => cf89-b2cf-5595-b2c6-1cd4 @ 970x90 @ 0.86 @ top
ssp: sspc @ 14:49:00.543 => 37f8-14e5-9a26-9688-d74b @ 300x600 @ 2.99 @ left-bottom
